G04*
G04 #@! TF.GenerationSoftware,Altium Limited,Altium Designer,20.0.12 (288)*
G04*
G04 Layer_Physical_Order=2*
G04 Layer_Color=16711680*
%FSLAX25Y25*%
%MOIN*%
G70*
G01*
G75*
%ADD10C,0.01000*%
%ADD68C,0.02000*%
%ADD69C,0.01500*%
%ADD70O,0.11811X0.07874*%
%ADD71C,0.15748*%
%ADD72C,0.07874*%
%ADD73C,0.06000*%
%ADD74C,0.03937*%
%ADD75O,0.15748X0.07874*%
%ADD76C,0.02756*%
%ADD77C,0.13780*%
G36*
X392000Y440500D02*
X437774Y440500D01*
X437799Y440000D01*
X437379Y439959D01*
X436280Y439850D01*
X434793Y439399D01*
X433422Y438667D01*
X432221Y437681D01*
X431235Y436479D01*
X430502Y435109D01*
X430051Y433622D01*
X429899Y432075D01*
X430051Y430528D01*
X430502Y429041D01*
X431235Y427670D01*
X432221Y426469D01*
X433422Y425483D01*
X434793Y424750D01*
X436280Y424299D01*
X437827Y424147D01*
X439373Y424299D01*
X440861Y424750D01*
X442231Y425483D01*
X443433Y426469D01*
X444419Y427670D01*
X445151Y429041D01*
X445602Y430528D01*
X445755Y432075D01*
X445602Y433622D01*
X445151Y435109D01*
X444419Y436479D01*
X443433Y437681D01*
X442231Y438667D01*
X440861Y439399D01*
X439373Y439850D01*
X438275Y439959D01*
X437855Y440000D01*
X437879Y440500D01*
X448000D01*
X448000Y420500D01*
X418500Y420500D01*
X418500Y332000D01*
X448000Y332000D01*
X448000Y313000D01*
X405000D01*
X405000Y273500D01*
X115000Y273500D01*
Y313000D01*
X53500D01*
Y333500D01*
X82500D01*
Y420500D01*
X53500Y420500D01*
X53500Y440500D01*
X63758D01*
X63782Y440000D01*
X63364Y439959D01*
X62264Y439850D01*
X60777Y439399D01*
X59407Y438667D01*
X58205Y437681D01*
X57219Y436479D01*
X56487Y435109D01*
X56035Y433622D01*
X55883Y432075D01*
X56035Y430528D01*
X56487Y429041D01*
X57219Y427670D01*
X58205Y426469D01*
X59407Y425483D01*
X60777Y424750D01*
X62264Y424299D01*
X63811Y424147D01*
X65358Y424299D01*
X66845Y424750D01*
X68216Y425483D01*
X69417Y426469D01*
X70403Y427670D01*
X71135Y429041D01*
X71587Y430528D01*
X71739Y432075D01*
X71587Y433622D01*
X71135Y435109D01*
X70403Y436479D01*
X69417Y437681D01*
X68216Y438667D01*
X66845Y439399D01*
X65358Y439850D01*
X64258Y439959D01*
X63840Y440000D01*
X63864Y440500D01*
X100000Y440500D01*
Y484500D01*
X392000D01*
Y440500D01*
D02*
G37*
%LPC*%
G36*
X111000Y460510D02*
X109511Y460314D01*
X108123Y459739D01*
X106931Y458825D01*
X106017Y457633D01*
X105442Y456245D01*
X105246Y454756D01*
X105442Y453267D01*
X106017Y451879D01*
X106931Y450687D01*
X108123Y449773D01*
X109511Y449198D01*
X111000Y449002D01*
X112489Y449198D01*
X113877Y449773D01*
X115069Y450687D01*
X115983Y451879D01*
X116558Y453267D01*
X116754Y454756D01*
X116558Y456245D01*
X115983Y457633D01*
X115069Y458825D01*
X113877Y459739D01*
X112489Y460314D01*
X111000Y460510D01*
D02*
G37*
G36*
X360921Y462585D02*
X359394Y462434D01*
X357925Y461989D01*
X356572Y461266D01*
X355385Y460292D01*
X354412Y459105D01*
X353688Y457752D01*
X353243Y456283D01*
X353092Y454756D01*
X353243Y453229D01*
X353688Y451760D01*
X354412Y450406D01*
X355385Y449220D01*
X356572Y448246D01*
X357925Y447523D01*
X359394Y447077D01*
X360921Y446927D01*
X362449Y447077D01*
X363917Y447523D01*
X365271Y448246D01*
X366457Y449220D01*
X367431Y450406D01*
X368154Y451760D01*
X368600Y453229D01*
X368750Y454756D01*
X368600Y456283D01*
X368154Y457752D01*
X367431Y459105D01*
X366457Y460292D01*
X365271Y461266D01*
X363917Y461989D01*
X362449Y462434D01*
X360921Y462585D01*
D02*
G37*
G36*
X396028Y432128D02*
Y423760D01*
X404395D01*
X404273Y424999D01*
X403766Y426672D01*
X402942Y428214D01*
X401833Y429565D01*
X400482Y430674D01*
X398940Y431498D01*
X397267Y432006D01*
X396028Y432128D01*
D02*
G37*
G36*
X395028D02*
X393788Y432006D01*
X392115Y431498D01*
X390574Y430674D01*
X389222Y429565D01*
X388113Y428214D01*
X387289Y426672D01*
X386782Y424999D01*
X386660Y423760D01*
X395028D01*
Y432128D01*
D02*
G37*
G36*
X404395Y422760D02*
X396028D01*
Y414392D01*
X397267Y414514D01*
X398940Y415022D01*
X400482Y415846D01*
X401833Y416955D01*
X402942Y418306D01*
X403766Y419847D01*
X404273Y421520D01*
X404395Y422760D01*
D02*
G37*
G36*
X395028D02*
X386660D01*
X386782Y421520D01*
X387289Y419847D01*
X388113Y418306D01*
X389222Y416955D01*
X390574Y415846D01*
X392115Y415022D01*
X393788Y414514D01*
X395028Y414392D01*
Y422760D01*
D02*
G37*
G36*
X108520Y432177D02*
X106780Y432006D01*
X105107Y431498D01*
X103566Y430674D01*
X102214Y429565D01*
X101105Y428214D01*
X100282Y426672D01*
X99774Y424999D01*
X99603Y423260D01*
X99774Y421520D01*
X100282Y419847D01*
X101105Y418306D01*
X102214Y416955D01*
X103566Y415846D01*
X105107Y415022D01*
X106780Y414514D01*
X108520Y414343D01*
X110259Y414514D01*
X111932Y415022D01*
X113474Y415846D01*
X114825Y416955D01*
X115934Y418306D01*
X116758Y419847D01*
X117265Y421520D01*
X117437Y423260D01*
X117265Y424999D01*
X116758Y426672D01*
X115934Y428214D01*
X114825Y429565D01*
X113474Y430674D01*
X111932Y431498D01*
X110259Y432006D01*
X108520Y432177D01*
D02*
G37*
G36*
X143598Y399593D02*
X142071Y399442D01*
X140602Y398997D01*
X139249Y398273D01*
X138062Y397300D01*
X137089Y396113D01*
X136365Y394760D01*
X135920Y393291D01*
X135769Y391764D01*
X135920Y390236D01*
X136365Y388768D01*
X137089Y387414D01*
X138062Y386228D01*
X139249Y385254D01*
X140602Y384531D01*
X142071Y384085D01*
X143598Y383935D01*
X145126Y384085D01*
X146595Y384531D01*
X147948Y385254D01*
X149134Y386228D01*
X150108Y387414D01*
X150831Y388768D01*
X151277Y390236D01*
X151427Y391764D01*
X151277Y393291D01*
X150831Y394760D01*
X150108Y396113D01*
X149134Y397300D01*
X147948Y398273D01*
X146595Y398997D01*
X145126Y399442D01*
X143598Y399593D01*
D02*
G37*
G36*
X110968Y381779D02*
X107032D01*
X105743Y381609D01*
X104542Y381112D01*
X103510Y380320D01*
X102719Y379289D01*
X102222Y378088D01*
X102052Y376799D01*
X102222Y375510D01*
X102719Y374309D01*
X103510Y373278D01*
X104542Y372487D01*
X105743Y371989D01*
X107032Y371820D01*
X110968D01*
X112257Y371989D01*
X113458Y372487D01*
X114490Y373278D01*
X115281Y374309D01*
X115778Y375510D01*
X115948Y376799D01*
X115778Y378088D01*
X115281Y379289D01*
X114490Y380320D01*
X113458Y381112D01*
X112257Y381609D01*
X110968Y381779D01*
D02*
G37*
G36*
X378039Y375932D02*
X370165D01*
X368877Y375763D01*
X367676Y375265D01*
X366644Y374474D01*
X365853Y373443D01*
X365355Y372242D01*
X365186Y370953D01*
X365355Y369664D01*
X365853Y368463D01*
X366644Y367432D01*
X367676Y366640D01*
X368877Y366143D01*
X370165Y365973D01*
X378039D01*
X379328Y366143D01*
X380529Y366640D01*
X381560Y367432D01*
X382352Y368463D01*
X382849Y369664D01*
X383019Y370953D01*
X382849Y372242D01*
X382352Y373443D01*
X381560Y374474D01*
X380529Y375265D01*
X379328Y375763D01*
X378039Y375932D01*
D02*
G37*
G36*
X110968Y369180D02*
X107032D01*
X105743Y369011D01*
X104542Y368513D01*
X103510Y367722D01*
X102719Y366691D01*
X102222Y365490D01*
X102052Y364201D01*
X102222Y362912D01*
X102719Y361711D01*
X103510Y360680D01*
X104542Y359888D01*
X105743Y359391D01*
X107032Y359221D01*
X110968D01*
X112257Y359391D01*
X113458Y359888D01*
X114490Y360680D01*
X115281Y361711D01*
X115778Y362912D01*
X115948Y364201D01*
X115778Y365490D01*
X115281Y366691D01*
X114490Y367722D01*
X113458Y368513D01*
X112257Y369011D01*
X110968Y369180D01*
D02*
G37*
G36*
X162000Y356424D02*
X161072Y356240D01*
X160286Y355714D01*
X160224Y355623D01*
X160216Y355616D01*
X160182Y355593D01*
X160150Y355575D01*
X160117Y355560D01*
X160082Y355547D01*
X160044Y355536D01*
X160007Y355529D01*
X128000D01*
X127415Y355413D01*
X126919Y355081D01*
X119419Y347581D01*
X119087Y347085D01*
X118971Y346500D01*
Y322493D01*
X118964Y322456D01*
X118953Y322417D01*
X118940Y322382D01*
X118925Y322350D01*
X118907Y322318D01*
X118884Y322284D01*
X118877Y322276D01*
X118786Y322214D01*
X118260Y321428D01*
X118076Y320500D01*
X118260Y319572D01*
X118786Y318786D01*
X119572Y318260D01*
X120500Y318075D01*
X121428Y318260D01*
X122214Y318786D01*
X122740Y319572D01*
X122924Y320500D01*
X122859Y320831D01*
X122877Y320868D01*
X123292Y321216D01*
X124000Y321076D01*
X124928Y321260D01*
X125228Y321461D01*
X133272D01*
X133572Y321260D01*
X133927Y321189D01*
X140058Y315058D01*
X140058Y315058D01*
X140720Y314616D01*
X141500Y314461D01*
X174655D01*
X178461Y310655D01*
Y306747D01*
X178449Y306649D01*
X178411Y306469D01*
X178359Y306293D01*
X178292Y306121D01*
X178208Y305952D01*
X178107Y305783D01*
X177987Y305614D01*
X177847Y305445D01*
X177727Y305320D01*
X177647Y305258D01*
X177006Y304423D01*
X176603Y303450D01*
X176531Y302906D01*
X184469D01*
X184397Y303450D01*
X183994Y304423D01*
X183353Y305258D01*
X183273Y305320D01*
X183153Y305445D01*
X183013Y305614D01*
X182893Y305783D01*
X182792Y305952D01*
X182708Y306121D01*
X182641Y306293D01*
X182589Y306469D01*
X182551Y306649D01*
X182539Y306747D01*
Y311500D01*
X182384Y312280D01*
X181942Y312942D01*
X176942Y317942D01*
X176280Y318384D01*
X175500Y318539D01*
X142345D01*
X136811Y324073D01*
X136740Y324428D01*
X136214Y325214D01*
X135428Y325740D01*
X135000Y325825D01*
Y323500D01*
X134000D01*
Y325825D01*
X133572Y325740D01*
X133272Y325539D01*
X125228D01*
X124928Y325740D01*
X124000Y325924D01*
X123072Y325740D01*
X122529Y325377D01*
X122029Y325645D01*
Y345866D01*
X128633Y352471D01*
X160007D01*
X160044Y352464D01*
X160082Y352453D01*
X160117Y352440D01*
X160150Y352425D01*
X160182Y352407D01*
X160216Y352384D01*
X160224Y352377D01*
X160286Y352286D01*
X161072Y351760D01*
X162000Y351575D01*
X162928Y351760D01*
X163714Y352286D01*
X164240Y353072D01*
X164425Y354000D01*
X164240Y354928D01*
X163714Y355714D01*
X162928Y356240D01*
X162000Y356424D01*
D02*
G37*
G36*
X378039Y356326D02*
X370165D01*
X368877Y356156D01*
X367676Y355659D01*
X366644Y354868D01*
X365853Y353836D01*
X365355Y352635D01*
X365186Y351346D01*
X365355Y350058D01*
X365853Y348857D01*
X366644Y347825D01*
X367676Y347034D01*
X368877Y346536D01*
X370165Y346367D01*
X378039D01*
X379328Y346536D01*
X380529Y347034D01*
X381560Y347825D01*
X382352Y348857D01*
X382849Y350058D01*
X383019Y351346D01*
X382849Y352635D01*
X382352Y353836D01*
X381560Y354868D01*
X380529Y355659D01*
X379328Y356156D01*
X378039Y356326D01*
D02*
G37*
G36*
X150500Y350425D02*
X149572Y350240D01*
X149272Y350039D01*
X145500D01*
X144720Y349884D01*
X144058Y349442D01*
X135427Y340810D01*
X135072Y340740D01*
X134286Y340214D01*
X133760Y339428D01*
X133575Y338500D01*
X133760Y337572D01*
X134286Y336786D01*
X135072Y336260D01*
X136000Y336075D01*
X136928Y336260D01*
X137714Y336786D01*
X138240Y337572D01*
X138311Y337927D01*
X146345Y345961D01*
X149272D01*
X149572Y345760D01*
X150500Y345575D01*
X151428Y345760D01*
X152214Y346286D01*
X152740Y347072D01*
X152925Y348000D01*
X152740Y348928D01*
X152214Y349714D01*
X151428Y350240D01*
X150500Y350425D01*
D02*
G37*
G36*
X378039Y335775D02*
X374602D01*
Y331295D01*
X382953D01*
X382849Y332084D01*
X382352Y333285D01*
X381560Y334316D01*
X380529Y335108D01*
X379328Y335605D01*
X378039Y335775D01*
D02*
G37*
G36*
X373602D02*
X370165D01*
X368877Y335605D01*
X367676Y335108D01*
X366644Y334316D01*
X365853Y333285D01*
X365355Y332084D01*
X365252Y331295D01*
X373602D01*
Y335775D01*
D02*
G37*
G36*
X382953Y330295D02*
X374602D01*
Y325816D01*
X378039D01*
X379328Y325985D01*
X380529Y326483D01*
X381560Y327274D01*
X382352Y328306D01*
X382849Y329506D01*
X382953Y330295D01*
D02*
G37*
G36*
X373602D02*
X365252D01*
X365355Y329506D01*
X365853Y328306D01*
X366644Y327274D01*
X367676Y326483D01*
X368877Y325985D01*
X370165Y325816D01*
X373602D01*
Y330295D01*
D02*
G37*
G36*
X132500Y383424D02*
X131572Y383240D01*
X130786Y382714D01*
X130260Y381928D01*
X130076Y381000D01*
X130260Y380072D01*
X130786Y379286D01*
X131572Y378760D01*
X132500Y378575D01*
X133428Y378760D01*
X133728Y378961D01*
X262655D01*
X323635Y317982D01*
X323388Y317521D01*
X323295Y317539D01*
X311728D01*
X311428Y317740D01*
X310500Y317924D01*
X309572Y317740D01*
X308786Y317214D01*
X308260Y316428D01*
X308075Y315500D01*
X308260Y314572D01*
X308786Y313786D01*
X309572Y313260D01*
X310500Y313075D01*
X311428Y313260D01*
X311728Y313461D01*
X322168D01*
X322286Y313286D01*
X323072Y312760D01*
X324000Y312576D01*
X324928Y312760D01*
X325714Y313286D01*
X326240Y314072D01*
X326425Y315000D01*
X326328Y315485D01*
X326363Y315581D01*
X326743Y315961D01*
X328772D01*
X329072Y315760D01*
X330000Y315576D01*
X330928Y315760D01*
X331714Y316286D01*
X332240Y317072D01*
X332424Y318000D01*
X332240Y318928D01*
X331714Y319714D01*
X330928Y320240D01*
X330000Y320425D01*
X329072Y320240D01*
X328772Y320039D01*
X327345D01*
X264942Y382442D01*
X264280Y382884D01*
X263500Y383039D01*
X133728D01*
X133428Y383240D01*
X132500Y383424D01*
D02*
G37*
G36*
X437827Y329767D02*
X436280Y329614D01*
X434793Y329163D01*
X433422Y328430D01*
X432221Y327445D01*
X431235Y326243D01*
X430502Y324872D01*
X430051Y323385D01*
X429899Y321839D01*
X430051Y320292D01*
X430502Y318805D01*
X431235Y317434D01*
X432221Y316233D01*
X433422Y315247D01*
X434793Y314514D01*
X436280Y314063D01*
X437827Y313911D01*
X439373Y314063D01*
X440861Y314514D01*
X442231Y315247D01*
X443433Y316233D01*
X444419Y317434D01*
X445151Y318805D01*
X445602Y320292D01*
X445755Y321839D01*
X445602Y323385D01*
X445151Y324872D01*
X444419Y326243D01*
X443433Y327445D01*
X442231Y328430D01*
X440861Y329163D01*
X439373Y329614D01*
X437827Y329767D01*
D02*
G37*
G36*
X63811D02*
X62264Y329614D01*
X60777Y329163D01*
X59407Y328430D01*
X58205Y327445D01*
X57219Y326243D01*
X56487Y324872D01*
X56035Y323385D01*
X55883Y321839D01*
X56035Y320292D01*
X56487Y318805D01*
X57219Y317434D01*
X58205Y316233D01*
X59407Y315247D01*
X60777Y314514D01*
X62264Y314063D01*
X63811Y313911D01*
X65358Y314063D01*
X66845Y314514D01*
X68216Y315247D01*
X69417Y316233D01*
X70403Y317434D01*
X71135Y318805D01*
X71587Y320292D01*
X71739Y321839D01*
X71587Y323385D01*
X71135Y324872D01*
X70403Y326243D01*
X69417Y327445D01*
X68216Y328430D01*
X66845Y329163D01*
X65358Y329614D01*
X63811Y329767D01*
D02*
G37*
G36*
X192311Y308943D02*
X191536Y308841D01*
X190814Y308542D01*
X190194Y308066D01*
X189718Y307446D01*
X189419Y306724D01*
X189317Y305949D01*
X189419Y305174D01*
X189718Y304452D01*
X190194Y303832D01*
X190814Y303356D01*
X191536Y303057D01*
X192311Y302955D01*
X193086Y303057D01*
X193808Y303356D01*
X194428Y303832D01*
X194904Y304452D01*
X195203Y305174D01*
X195305Y305949D01*
X195203Y306724D01*
X194904Y307446D01*
X194428Y308066D01*
X193808Y308542D01*
X193086Y308841D01*
X192311Y308943D01*
D02*
G37*
G36*
X168689D02*
X167914Y308841D01*
X167192Y308542D01*
X166572Y308066D01*
X166096Y307446D01*
X165797Y306724D01*
X165695Y305949D01*
X165797Y305174D01*
X166096Y304452D01*
X166572Y303832D01*
X167192Y303356D01*
X167914Y303057D01*
X168689Y302955D01*
X169464Y303057D01*
X170186Y303356D01*
X170806Y303832D01*
X171282Y304452D01*
X171581Y305174D01*
X171683Y305949D01*
X171581Y306724D01*
X171282Y307446D01*
X170806Y308066D01*
X170186Y308542D01*
X169464Y308841D01*
X168689Y308943D01*
D02*
G37*
G36*
X184469Y301905D02*
X181000D01*
Y298437D01*
X181544Y298509D01*
X182517Y298911D01*
X183353Y299553D01*
X183994Y300388D01*
X184397Y301361D01*
X184469Y301905D01*
D02*
G37*
G36*
X180000D02*
X176531D01*
X176603Y301361D01*
X177006Y300388D01*
X177647Y299553D01*
X178483Y298911D01*
X179456Y298509D01*
X180000Y298437D01*
Y301905D01*
D02*
G37*
G36*
X212291Y370460D02*
X204417D01*
X203129Y370290D01*
X201927Y369793D01*
X200896Y369001D01*
X200105Y367970D01*
X199607Y366769D01*
X199438Y365480D01*
X199607Y364192D01*
X200105Y362990D01*
X200896Y361959D01*
X201927Y361168D01*
X202934Y360751D01*
Y360210D01*
X201927Y359793D01*
X200896Y359001D01*
X200105Y357970D01*
X199971Y357647D01*
X199900Y357623D01*
X199695Y357578D01*
X199123Y357520D01*
X197980D01*
X197200Y357364D01*
X196538Y356922D01*
X193558Y353942D01*
X193116Y353280D01*
X192961Y352500D01*
Y318500D01*
X193116Y317720D01*
X193558Y317058D01*
X197961Y312655D01*
Y282000D01*
X198116Y281220D01*
X198558Y280558D01*
X202558Y276558D01*
X203220Y276116D01*
X204000Y275961D01*
X226500D01*
X227280Y276116D01*
X227942Y276558D01*
X229442Y278058D01*
X229884Y278720D01*
X230039Y279500D01*
Y279833D01*
X230062Y280019D01*
X230113Y280251D01*
X230182Y280468D01*
X230269Y280672D01*
X230376Y280866D01*
X230503Y281052D01*
X230653Y281232D01*
X230829Y281407D01*
X231063Y281604D01*
X231090Y281639D01*
X231128Y281663D01*
X231147Y281691D01*
X231521Y281979D01*
X232312Y283010D01*
X232729Y284017D01*
X233271D01*
X233687Y283010D01*
X234479Y281979D01*
X235510Y281188D01*
X236711Y280690D01*
X237656Y280566D01*
X237711Y280291D01*
X238042Y279795D01*
X240466Y277371D01*
X240962Y277039D01*
X241548Y276923D01*
X301452D01*
X302038Y277039D01*
X302534Y277371D01*
X310845Y285682D01*
X310901Y285727D01*
X310990Y285787D01*
X311079Y285838D01*
X311171Y285880D01*
X311265Y285915D01*
X311365Y285943D01*
X311471Y285963D01*
X311542Y285971D01*
X320036D01*
X320206Y286004D01*
X320572Y285760D01*
X321500Y285576D01*
X322428Y285760D01*
X323214Y286286D01*
X323740Y287072D01*
X323924Y288000D01*
X323740Y288928D01*
X323214Y289714D01*
X322428Y290240D01*
X321500Y290424D01*
X320572Y290240D01*
X319786Y289714D01*
X319328Y289029D01*
X312029D01*
Y292507D01*
X312036Y292544D01*
X312047Y292583D01*
X312060Y292618D01*
X312075Y292650D01*
X312093Y292683D01*
X312116Y292716D01*
X312123Y292724D01*
X312214Y292786D01*
X312740Y293572D01*
X312925Y294500D01*
X312740Y295428D01*
X312679Y295520D01*
X312914Y295961D01*
X380655D01*
X385024Y291592D01*
Y291264D01*
X384997Y291082D01*
X384937Y290834D01*
X384849Y290568D01*
X384731Y290285D01*
X384582Y289985D01*
X384407Y289679D01*
X383932Y288982D01*
X383646Y288617D01*
X383603Y288531D01*
X383188Y287990D01*
X382771Y286983D01*
X382229D01*
X381813Y287990D01*
X381021Y289021D01*
X379990Y289812D01*
X378789Y290310D01*
X377500Y290480D01*
X376211Y290310D01*
X375010Y289812D01*
X373979Y289021D01*
X373187Y287990D01*
X372771Y286983D01*
X372229D01*
X371813Y287990D01*
X371021Y289021D01*
X369990Y289812D01*
X368789Y290310D01*
X368000Y290414D01*
Y285500D01*
X367000D01*
Y290414D01*
X366211Y290310D01*
X365010Y289812D01*
X363979Y289021D01*
X363188Y287990D01*
X362771Y286983D01*
X362229D01*
X361812Y287990D01*
X361021Y289021D01*
X359990Y289812D01*
X358789Y290310D01*
X357500Y290480D01*
X356211Y290310D01*
X355010Y289812D01*
X353979Y289021D01*
X353187Y287990D01*
X352771Y286983D01*
X352229D01*
X351813Y287990D01*
X351021Y289021D01*
X349990Y289812D01*
X348789Y290310D01*
X347500Y290480D01*
X346211Y290310D01*
X345010Y289812D01*
X343979Y289021D01*
X343187Y287990D01*
X342690Y286789D01*
X342520Y285500D01*
X342690Y284211D01*
X343187Y283010D01*
X343979Y281979D01*
X345010Y281188D01*
X346211Y280690D01*
X347500Y280520D01*
X348789Y280690D01*
X349990Y281188D01*
X351021Y281979D01*
X351813Y283010D01*
X352229Y284017D01*
X352771D01*
X353187Y283010D01*
X353979Y281979D01*
X355010Y281188D01*
X356211Y280690D01*
X357500Y280520D01*
X358789Y280690D01*
X359990Y281188D01*
X361021Y281979D01*
X361812Y283010D01*
X362229Y284017D01*
X362771D01*
X363188Y283010D01*
X363979Y281979D01*
X364353Y281691D01*
X364372Y281663D01*
X364409Y281639D01*
X364438Y281604D01*
X364671Y281407D01*
X364846Y281232D01*
X364997Y281052D01*
X365124Y280866D01*
X365231Y280672D01*
X365318Y280468D01*
X365383Y280266D01*
X363655Y278539D01*
X341345D01*
X338384Y281500D01*
X333675D01*
X333760Y281072D01*
X334191Y280428D01*
X334261Y280075D01*
X334703Y279414D01*
X339058Y275058D01*
X339720Y274616D01*
X340500Y274461D01*
X364500D01*
X365280Y274616D01*
X365942Y275058D01*
X368942Y278058D01*
X369384Y278720D01*
X369539Y279500D01*
Y279833D01*
X369562Y280019D01*
X369613Y280251D01*
X369682Y280468D01*
X369769Y280672D01*
X369876Y280866D01*
X370003Y281052D01*
X370153Y281232D01*
X370329Y281407D01*
X370563Y281604D01*
X370590Y281639D01*
X370628Y281663D01*
X370647Y281691D01*
X371021Y281979D01*
X371813Y283010D01*
X372229Y284017D01*
X372771D01*
X373187Y283010D01*
X373979Y281979D01*
X375010Y281188D01*
X376211Y280690D01*
X377500Y280520D01*
X378789Y280690D01*
X379990Y281188D01*
X381021Y281979D01*
X381813Y283010D01*
X382229Y284017D01*
X382771D01*
X383188Y283010D01*
X383979Y281979D01*
X385010Y281188D01*
X386211Y280690D01*
X387500Y280520D01*
X388789Y280690D01*
X389990Y281188D01*
X391021Y281979D01*
X391812Y283010D01*
X392310Y284211D01*
X392480Y285500D01*
X392310Y286789D01*
X391812Y287990D01*
X391021Y289021D01*
X390629Y289322D01*
X390578Y289384D01*
X390249Y289658D01*
X389982Y289910D01*
X389754Y290158D01*
X389563Y290401D01*
X389408Y290637D01*
X389287Y290867D01*
X389197Y291092D01*
X389134Y291313D01*
X389102Y291501D01*
Y292437D01*
X389102Y292437D01*
X388947Y293217D01*
X388505Y293879D01*
X382942Y299442D01*
X382280Y299884D01*
X381500Y300039D01*
X260539D01*
Y339500D01*
X260539Y339500D01*
X260384Y340280D01*
X259942Y340942D01*
X233962Y366922D01*
X233300Y367364D01*
X232520Y367519D01*
X217532D01*
X217321Y367535D01*
X217031Y367574D01*
X216809Y367623D01*
X216738Y367647D01*
X216604Y367970D01*
X215812Y369001D01*
X214781Y369793D01*
X213580Y370290D01*
X212291Y370460D01*
D02*
G37*
G36*
X180500Y294629D02*
X179456Y294492D01*
X178483Y294089D01*
X177647Y293447D01*
X177006Y292612D01*
X176603Y291639D01*
X176465Y290595D01*
X176603Y289550D01*
X177006Y288577D01*
X177647Y287742D01*
X178483Y287101D01*
X179456Y286697D01*
X180500Y286560D01*
X181544Y286697D01*
X182517Y287101D01*
X183353Y287742D01*
X183994Y288577D01*
X184397Y289550D01*
X184535Y290595D01*
X184397Y291639D01*
X183994Y292612D01*
X183353Y293447D01*
X182517Y294089D01*
X181544Y294492D01*
X180500Y294629D01*
D02*
G37*
G36*
X336500Y284325D02*
Y282500D01*
X338325D01*
X338240Y282928D01*
X337714Y283714D01*
X336928Y284240D01*
X336500Y284325D01*
D02*
G37*
G36*
X335500D02*
X335072Y284240D01*
X334286Y283714D01*
X333760Y282928D01*
X333675Y282500D01*
X335500D01*
Y284325D01*
D02*
G37*
%LPD*%
G36*
X161016Y353035D02*
X160923Y353124D01*
X160825Y353203D01*
X160723Y353272D01*
X160617Y353333D01*
X160507Y353384D01*
X160392Y353426D01*
X160273Y353458D01*
X160149Y353481D01*
X160021Y353495D01*
X159889Y353500D01*
Y354500D01*
X160021Y354505D01*
X160149Y354519D01*
X160273Y354542D01*
X160392Y354574D01*
X160507Y354616D01*
X160617Y354667D01*
X160723Y354728D01*
X160825Y354797D01*
X160923Y354876D01*
X161016Y354965D01*
Y353035D01*
D02*
G37*
G36*
X121005Y322479D02*
X121019Y322351D01*
X121042Y322227D01*
X121074Y322108D01*
X121116Y321993D01*
X121167Y321883D01*
X121228Y321777D01*
X121297Y321675D01*
X121376Y321577D01*
X121465Y321484D01*
X119535D01*
X119624Y321577D01*
X119703Y321675D01*
X119772Y321777D01*
X119833Y321883D01*
X119884Y321993D01*
X119926Y322108D01*
X119958Y322227D01*
X119981Y322351D01*
X119995Y322479D01*
X120000Y322611D01*
X121000D01*
X121005Y322479D01*
D02*
G37*
G36*
X181511Y306756D02*
X181544Y306484D01*
X181599Y306219D01*
X181676Y305960D01*
X181775Y305709D01*
X181896Y305463D01*
X182039Y305224D01*
X182204Y304992D01*
X182391Y304767D01*
X182600Y304548D01*
X178400D01*
X178609Y304767D01*
X178796Y304992D01*
X178961Y305224D01*
X179104Y305463D01*
X179225Y305709D01*
X179324Y305960D01*
X179401Y306219D01*
X179456Y306484D01*
X179489Y306756D01*
X179500Y307034D01*
X181500D01*
X181511Y306756D01*
D02*
G37*
G36*
X215686Y367286D02*
X215759Y367117D01*
X215881Y366968D01*
X216051Y366838D01*
X216269Y366729D01*
X216536Y366639D01*
X216852Y366570D01*
X217216Y366520D01*
X217628Y366490D01*
X218090Y366480D01*
Y364480D01*
X217628Y364470D01*
X216852Y364391D01*
X216536Y364321D01*
X216269Y364232D01*
X216051Y364122D01*
X215881Y363993D01*
X215759Y363844D01*
X215686Y363675D01*
X215662Y363486D01*
Y367475D01*
X215686Y367286D01*
D02*
G37*
G36*
X201046Y353486D02*
X201022Y353675D01*
X200949Y353844D01*
X200828Y353993D01*
X200658Y354122D01*
X200440Y354232D01*
X200173Y354321D01*
X199857Y354391D01*
X199493Y354440D01*
X199080Y354470D01*
X198619Y354480D01*
Y356480D01*
X199080Y356490D01*
X199857Y356570D01*
X200173Y356639D01*
X200440Y356729D01*
X200658Y356838D01*
X200828Y356967D01*
X200949Y357117D01*
X201022Y357286D01*
X201046Y357475D01*
Y353486D01*
D02*
G37*
G36*
X215686Y347286D02*
X215759Y347117D01*
X215881Y346968D01*
X216051Y346838D01*
X216269Y346729D01*
X216536Y346639D01*
X216852Y346570D01*
X217216Y346520D01*
X217628Y346490D01*
X218090Y346480D01*
Y344480D01*
X217628Y344470D01*
X216852Y344391D01*
X216536Y344321D01*
X216269Y344232D01*
X216051Y344122D01*
X215881Y343993D01*
X215759Y343844D01*
X215686Y343675D01*
X215662Y343486D01*
Y347475D01*
X215686Y347286D01*
D02*
G37*
G36*
X256461Y338655D02*
Y299000D01*
Y291509D01*
X256429Y291322D01*
X256366Y291103D01*
X256276Y290881D01*
X256155Y290655D01*
X256001Y290424D01*
X255811Y290187D01*
X255582Y289945D01*
X255315Y289699D01*
X254984Y289433D01*
X254927Y289365D01*
X254479Y289021D01*
X253688Y287990D01*
X253271Y286983D01*
X252729D01*
X252312Y287990D01*
X251521Y289021D01*
X250490Y289812D01*
X249289Y290310D01*
X248000Y290480D01*
X246711Y290310D01*
X245510Y289812D01*
X244479Y289021D01*
X243688Y287990D01*
X243271Y286983D01*
X242729D01*
X242313Y287990D01*
X241521Y289021D01*
X240490Y289812D01*
X239289Y290310D01*
X238000Y290480D01*
X236711Y290310D01*
X235510Y289812D01*
X234479Y289021D01*
X233687Y287990D01*
X233271Y286983D01*
X232729D01*
X232312Y287990D01*
X231521Y289021D01*
X230490Y289812D01*
X229289Y290310D01*
X228000Y290480D01*
X226711Y290310D01*
X225510Y289812D01*
X224479Y289021D01*
X223688Y287990D01*
X223271Y286983D01*
X222729D01*
X222312Y287990D01*
X221521Y289021D01*
X220490Y289812D01*
X219289Y290310D01*
X218500Y290414D01*
Y285500D01*
X218000D01*
Y285000D01*
X213086D01*
X213190Y284211D01*
X213687Y283010D01*
X214479Y281979D01*
X215510Y281188D01*
X216711Y280690D01*
X217857Y280539D01*
X217825Y280039D01*
X204845D01*
X202039Y282845D01*
Y313500D01*
X201884Y314280D01*
X201442Y314942D01*
X197039Y319345D01*
Y351655D01*
X198825Y353441D01*
X199177D01*
X199387Y353426D01*
X199678Y353386D01*
X199900Y353337D01*
X199971Y353313D01*
X200105Y352991D01*
X200896Y351959D01*
X201927Y351168D01*
X202934Y350751D01*
Y350210D01*
X201927Y349793D01*
X200896Y349001D01*
X200105Y347970D01*
X199607Y346769D01*
X199438Y345480D01*
X199607Y344192D01*
X200105Y342990D01*
X200896Y341959D01*
X201927Y341168D01*
X202934Y340751D01*
Y340210D01*
X201927Y339793D01*
X200896Y339001D01*
X200105Y337970D01*
X199607Y336769D01*
X199504Y335980D01*
X217205D01*
X217101Y336769D01*
X216604Y337970D01*
X215812Y339001D01*
X214781Y339793D01*
X213775Y340210D01*
Y340751D01*
X214781Y341168D01*
X215812Y341959D01*
X216604Y342990D01*
X216738Y343313D01*
X216809Y343337D01*
X217014Y343383D01*
X217586Y343441D01*
X224175D01*
X246461Y321155D01*
Y312728D01*
X246260Y312428D01*
X246076Y311500D01*
X246260Y310572D01*
X246786Y309786D01*
X247572Y309260D01*
X248500Y309075D01*
X249428Y309260D01*
X250214Y309786D01*
X250740Y310572D01*
X250924Y311500D01*
X250740Y312428D01*
X250539Y312728D01*
Y322000D01*
X250384Y322780D01*
X249942Y323442D01*
X226462Y346922D01*
X225800Y347364D01*
X225020Y347519D01*
X217532D01*
X217321Y347535D01*
X217031Y347574D01*
X216809Y347623D01*
X216738Y347647D01*
X216604Y347970D01*
X215812Y349001D01*
X214781Y349793D01*
X213775Y350210D01*
Y350751D01*
X214781Y351168D01*
X215812Y351959D01*
X216604Y352991D01*
X217101Y354191D01*
X217271Y355480D01*
X217101Y356769D01*
X216604Y357970D01*
X215812Y359001D01*
X214781Y359793D01*
X213775Y360210D01*
Y360751D01*
X214781Y361168D01*
X215812Y361959D01*
X216604Y362990D01*
X216738Y363313D01*
X216809Y363337D01*
X217014Y363383D01*
X217586Y363441D01*
X231675D01*
X256461Y338655D01*
D02*
G37*
G36*
X311376Y293423D02*
X311297Y293325D01*
X311228Y293223D01*
X311167Y293117D01*
X311116Y293007D01*
X311074Y292892D01*
X311042Y292773D01*
X311019Y292649D01*
X311005Y292521D01*
X311000Y292389D01*
X310000D01*
X309995Y292521D01*
X309981Y292649D01*
X309958Y292773D01*
X309926Y292892D01*
X309884Y293007D01*
X309833Y293117D01*
X309772Y293223D01*
X309703Y293325D01*
X309624Y293423D01*
X309535Y293516D01*
X311465D01*
X311376Y293423D01*
D02*
G37*
G36*
X388082Y291421D02*
X388138Y291089D01*
X388231Y290761D01*
X388361Y290438D01*
X388529Y290119D01*
X388734Y289806D01*
X388976Y289497D01*
X389256Y289193D01*
X389573Y288894D01*
X389927Y288600D01*
X384449Y287988D01*
X384756Y288380D01*
X385272Y289138D01*
X385482Y289505D01*
X385660Y289863D01*
X385805Y290212D01*
X385918Y290554D01*
X385998Y290887D01*
X386047Y291211D01*
X386063Y291528D01*
X388063Y291759D01*
X388082Y291421D01*
D02*
G37*
G36*
X259500Y291502D02*
X259516Y291188D01*
X259564Y290864D01*
X259643Y290532D01*
X259754Y290189D01*
X259898Y289838D01*
X260073Y289477D01*
X260279Y289106D01*
X260788Y288337D01*
X261091Y287939D01*
X255624Y288639D01*
X255980Y288926D01*
X256299Y289219D01*
X256580Y289517D01*
X256824Y289821D01*
X257031Y290131D01*
X257200Y290447D01*
X257331Y290769D01*
X257425Y291096D01*
X257481Y291429D01*
X257500Y291767D01*
X259500Y291502D01*
D02*
G37*
G36*
X311010Y288810D02*
X311040Y288640D01*
X311090Y288490D01*
X311160Y288360D01*
X311250Y288250D01*
X311360Y288160D01*
X311490Y288090D01*
X311640Y288040D01*
X311810Y288010D01*
X312000Y288000D01*
X311707Y287000D01*
X311510Y286993D01*
X311319Y286972D01*
X311134Y286936D01*
X310954Y286887D01*
X310780Y286823D01*
X310613Y286745D01*
X310451Y286653D01*
X310295Y286547D01*
X310144Y286427D01*
X310000Y286293D01*
X309293Y287000D01*
X309427Y287144D01*
X309547Y287295D01*
X309653Y287451D01*
X309745Y287613D01*
X309823Y287780D01*
X309887Y287954D01*
X309936Y288134D01*
X309972Y288319D01*
X309993Y288510D01*
X310000Y288707D01*
X311000Y289000D01*
X311010Y288810D01*
D02*
G37*
G36*
X239960Y282074D02*
X239890Y282001D01*
X239827Y281913D01*
X239773Y281810D01*
X239728Y281693D01*
X239690Y281559D01*
X239661Y281411D01*
X239640Y281248D01*
X239628Y281069D01*
X239624Y280876D01*
X238624D01*
X238619Y281010D01*
X238604Y281130D01*
X238580Y281235D01*
X238546Y281325D01*
X238502Y281401D01*
X238448Y281463D01*
X238385Y281510D01*
X238312Y281543D01*
X238229Y281561D01*
X238136Y281565D01*
X240039Y282132D01*
X239960Y282074D01*
D02*
G37*
G36*
X308321Y295520D02*
X308260Y295428D01*
X308075Y294500D01*
X308260Y293572D01*
X308786Y292786D01*
X308877Y292724D01*
X308884Y292716D01*
X308907Y292683D01*
X308925Y292650D01*
X308940Y292618D01*
X308953Y292583D01*
X308964Y292544D01*
X308971Y292507D01*
Y288542D01*
X308963Y288471D01*
X308943Y288365D01*
X308915Y288265D01*
X308880Y288171D01*
X308838Y288079D01*
X308787Y287990D01*
X308727Y287901D01*
X308682Y287845D01*
X300819Y279982D01*
X242181D01*
X241033Y281130D01*
X241065Y281629D01*
X241521Y281979D01*
X242313Y283010D01*
X242729Y284017D01*
X243271D01*
X243688Y283010D01*
X244479Y281979D01*
X245510Y281188D01*
X246711Y280690D01*
X248000Y280520D01*
X249289Y280690D01*
X250490Y281188D01*
X251521Y281979D01*
X252312Y283010D01*
X252729Y284017D01*
X253271D01*
X253688Y283010D01*
X254479Y281979D01*
X255510Y281188D01*
X256711Y280690D01*
X258000Y280520D01*
X259289Y280690D01*
X260490Y281188D01*
X261521Y281979D01*
X262313Y283010D01*
X262810Y284211D01*
X262980Y285500D01*
X262810Y286789D01*
X262313Y287990D01*
X261945Y288469D01*
X261903Y288555D01*
X261621Y288927D01*
X261151Y289637D01*
X260977Y289948D01*
X260830Y290253D01*
X260713Y290540D01*
X260625Y290808D01*
X260566Y291058D01*
X260539Y291238D01*
Y295961D01*
X308086D01*
X308321Y295520D01*
D02*
G37*
G36*
X369639Y282160D02*
X369400Y281921D01*
X369189Y281668D01*
X369006Y281401D01*
X368852Y281120D01*
X368725Y280824D01*
X368627Y280515D01*
X368556Y280191D01*
X368514Y279852D01*
X368500Y279500D01*
X366500D01*
X366486Y279852D01*
X366444Y280191D01*
X366373Y280515D01*
X366275Y280824D01*
X366148Y281120D01*
X365993Y281401D01*
X365811Y281668D01*
X365600Y281921D01*
X365360Y282160D01*
X365093Y282384D01*
X369907D01*
X369639Y282160D01*
D02*
G37*
G36*
X230139D02*
X229900Y281921D01*
X229689Y281668D01*
X229506Y281401D01*
X229352Y281120D01*
X229225Y280824D01*
X229127Y280515D01*
X229056Y280191D01*
X229014Y279852D01*
X229000Y279500D01*
X227000D01*
X226986Y279852D01*
X226944Y280191D01*
X226873Y280515D01*
X226775Y280824D01*
X226648Y281120D01*
X226494Y281401D01*
X226311Y281668D01*
X226100Y281921D01*
X225861Y282160D01*
X225593Y282384D01*
X230407D01*
X230139Y282160D01*
D02*
G37*
%LPC*%
G36*
X217205Y334980D02*
X199504D01*
X199607Y334191D01*
X200105Y332991D01*
X200896Y331959D01*
X201927Y331168D01*
X203129Y330670D01*
X204417Y330501D01*
X206225D01*
X206226Y330499D01*
X206267Y330347D01*
X206302Y330133D01*
X206315Y329983D01*
Y295146D01*
X206470Y294365D01*
X206912Y293704D01*
X212379Y288237D01*
X212490Y288084D01*
X212613Y287873D01*
X212722Y287635D01*
X212819Y287367D01*
X212900Y287067D01*
X212964Y286736D01*
X213011Y286372D01*
X213036Y286000D01*
X214056D01*
X214056Y286018D01*
X214026Y286471D01*
X213971Y286897D01*
X213894Y287298D01*
X213792Y287673D01*
X213667Y288021D01*
X213518Y288344D01*
X213346Y288641D01*
X213150Y288911D01*
X212930Y289156D01*
X214344Y290570D01*
X214589Y290350D01*
X214859Y290154D01*
X215156Y289982D01*
X215479Y289833D01*
X215827Y289708D01*
X216202Y289606D01*
X216602Y289528D01*
X217029Y289474D01*
X217482Y289444D01*
X217500Y289443D01*
Y290464D01*
X217128Y290490D01*
X216764Y290536D01*
X216433Y290600D01*
X216133Y290681D01*
X215865Y290777D01*
X215627Y290887D01*
X215416Y291010D01*
X215263Y291121D01*
X210394Y295990D01*
Y329983D01*
X210407Y330133D01*
X210442Y330347D01*
X210483Y330499D01*
X210484Y330501D01*
X212291D01*
X213580Y330670D01*
X214781Y331168D01*
X215812Y331959D01*
X216604Y332991D01*
X217101Y334191D01*
X217205Y334980D01*
D02*
G37*
G36*
X217500Y288976D02*
X214524Y286000D01*
X217500D01*
Y288976D01*
D02*
G37*
%LPD*%
G36*
X210164Y331528D02*
X209994Y331468D01*
X209844Y331367D01*
X209714Y331226D01*
X209604Y331045D01*
X209514Y330824D01*
X209444Y330562D01*
X209394Y330261D01*
X209364Y329919D01*
X209354Y329536D01*
X207354D01*
X207344Y329919D01*
X207314Y330261D01*
X207264Y330562D01*
X207194Y330824D01*
X207104Y331045D01*
X206994Y331226D01*
X206864Y331367D01*
X206714Y331468D01*
X206544Y331528D01*
X206354Y331548D01*
X210354D01*
X210164Y331528D01*
D02*
G37*
D10*
X321164Y287664D02*
X321500Y288000D01*
X320200Y287664D02*
X321164D01*
X320036Y287500D02*
X320200Y287664D01*
X310500Y287500D02*
X320036D01*
X120500Y346500D02*
X128000Y354000D01*
X120500Y320500D02*
Y346500D01*
X128000Y354000D02*
X162000D01*
X238000Y285500D02*
X239124Y284376D01*
Y280876D02*
Y284376D01*
Y280876D02*
X241548Y278452D01*
X310500Y287500D02*
Y294500D01*
X241548Y278452D02*
X301452D01*
X310500Y287500D01*
D68*
X340500Y276500D02*
X364500D01*
X336000Y282000D02*
X336145Y281855D01*
Y280855D02*
X340500Y276500D01*
X336145Y280855D02*
Y281855D01*
X367500Y279500D02*
Y285500D01*
X364500Y276500D02*
X367500Y279500D01*
X310500Y315500D02*
X323295D01*
X323795Y315000D01*
X324000D01*
X195000Y318500D02*
Y352500D01*
Y318500D02*
X200000Y313500D01*
X195000Y352500D02*
X197980Y355480D01*
X228000Y279500D02*
Y285500D01*
X204000Y278000D02*
X226500D01*
X228000Y279500D01*
X200000Y282000D02*
Y313500D01*
Y282000D02*
X204000Y278000D01*
X197980Y355480D02*
X208354D01*
X248500Y311500D02*
Y322000D01*
X225020Y345480D02*
X248500Y322000D01*
X326500Y318000D02*
X330000D01*
X263500Y381000D02*
X326500Y318000D01*
X132500Y381000D02*
X263500D01*
X175500Y316500D02*
X180500Y311500D01*
Y302406D02*
Y311500D01*
X141500Y316500D02*
X175500D01*
X134500Y323500D02*
X141500Y316500D01*
X124000Y323500D02*
X134500D01*
X145500Y348000D02*
X150500D01*
X136000Y338500D02*
X145500Y348000D01*
X232520Y365480D02*
X258500Y339500D01*
X208354Y365480D02*
X232520D01*
X258000Y285500D02*
X258500Y286000D01*
Y299000D02*
Y339500D01*
X208354Y345480D02*
X225020D01*
X248000Y285500D02*
X248500Y286000D01*
X208354Y295146D02*
Y335480D01*
Y295146D02*
X218000Y285500D01*
X258500Y286000D02*
Y299000D01*
X259500Y298000D02*
X381500D01*
X258500Y299000D02*
X259500Y298000D01*
X381500D02*
X387063Y292437D01*
Y285937D02*
Y292437D01*
Y285937D02*
X387500Y285500D01*
D69*
X370346Y351346D02*
X374102D01*
D70*
X109000Y376799D02*
D03*
Y364201D02*
D03*
D71*
X395528Y423260D02*
D03*
X108520D02*
D03*
D72*
X387500Y285500D02*
D03*
X377500D02*
D03*
X367500D02*
D03*
X357500D02*
D03*
X347500D02*
D03*
X258000D02*
D03*
X248000D02*
D03*
X238000D02*
D03*
X228000D02*
D03*
X218000D02*
D03*
D73*
X180500Y290595D02*
D03*
Y302406D02*
D03*
D74*
X168689Y305949D02*
D03*
X192311D02*
D03*
D75*
X374102Y330795D02*
D03*
Y351346D02*
D03*
Y370953D02*
D03*
X208354Y335480D02*
D03*
Y345480D02*
D03*
Y355480D02*
D03*
Y365480D02*
D03*
D76*
X336000Y282000D02*
D03*
X321500Y288000D02*
D03*
X324000Y315000D02*
D03*
X310500Y315500D02*
D03*
X248500Y311500D02*
D03*
X330000Y318000D02*
D03*
X134500Y323500D02*
D03*
X124000D02*
D03*
X120500Y320500D02*
D03*
X162000Y354000D02*
D03*
X150500Y348000D02*
D03*
X136000Y338500D02*
D03*
X310500Y294500D02*
D03*
X132500Y381000D02*
D03*
D77*
X63811Y321839D02*
D03*
X437827D02*
D03*
Y432075D02*
D03*
X63811D02*
D03*
M02*
